<?xml version="1.0" encoding="UTF-8" standalone="no"?>
<!-- Created with Inkscape (http://www.inkscape.org/) -->

<svg
   xmlns:dc="http://purl.org/dc/elements/1.1/"
   xmlns:cc="http://creativecommons.org/ns#"
   xmlns:rdf="http://www.w3.org/1999/02/22-rdf-syntax-ns#"
   xmlns:svg="http://www.w3.org/2000/svg"
   xmlns="http://www.w3.org/2000/svg"
   xmlns:sodipodi="http://sodipodi.sourceforge.net/DTD/sodipodi-0.dtd"
   xmlns:inkscape="http://www.inkscape.org/namespaces/inkscape"
   width="500"
   height="500"
   viewBox="0 0 132.29166 132.29167"
   version="1.1"
   id="svg8"
   inkscape:version="0.92.4 (unknown)"
   sodipodi:docname="logoTransportadoraBranca.svg">
  <defs
     id="defs2" />
  <sodipodi:namedview
     id="base"
     pagecolor="#ffffff"
     bordercolor="#666666"
     borderopacity="1.0"
     inkscape:pageopacity="0.0"
     inkscape:pageshadow="2"
     inkscape:zoom="0.7"
     inkscape:cx="166.19857"
     inkscape:cy="175.94588"
     inkscape:document-units="mm"
     inkscape:current-layer="layer1"
     showgrid="false"
     inkscape:window-width="1920"
     inkscape:window-height="1017"
     inkscape:window-x="-8"
     inkscape:window-y="-8"
     inkscape:window-maximized="1"
     units="px" />
  <metadata
     id="metadata5">
    <rdf:RDF>
      <cc:Work
         rdf:about="">
        <dc:format>image/svg+xml</dc:format>
        <dc:type
           rdf:resource="http://purl.org/dc/dcmitype/StillImage" />
        <dc:title></dc:title>
      </cc:Work>
    </rdf:RDF>
  </metadata>
  <g
     inkscape:label="Camada 1"
     inkscape:groupmode="layer"
     id="layer1"
     transform="translate(0,-164.70832)">
    <path
       id="path23"
       style="fill:#ffffff;fill-opacity:1;stroke:none;stroke-width:0.32863387px;stroke-linecap:butt;stroke-linejoin:miter;stroke-opacity:1"
       d="m 61.70206,175.47282 v 0 0 l 25.063768,15.76859 c 0,0 0.769506,2.47626 -2.489776,2.65577 L 58.548343,178.29457 c 0,0 -2.157807,-0.99592 -6.307437,2.98774 l 25.561731,14.93866 c 0,0 0.633734,2.69259 -2.655768,2.32379 L 49.087187,182.77617 c 0,0 -7.469333,3.48569 -5.311525,4.81357 l 24.565809,13.77677 c 0,0 1.247334,3.10166 -2.987735,2.65576 0,0 -24.233837,-15.76859 -26.391645,-15.60261 0,0 -6.307437,3.31971 -6.141453,7.13737 l 0.165986,34.02696 c 0,0 0.165985,2.15782 4.4816,3.81766 l 26.889601,15.60261 0.33197,-36.18477 c 0,0 -0.663941,-0.82993 -2.821748,-1.82584 L 36.970268,196.22097 c 0,0 -0.463114,-0.39218 0.191461,-1.03597 0.376262,-0.37006 0.599201,-0.58339 1.499514,-1.3397 l 26.526507,15.65449 c 0,0 2.489779,1.16189 2.323793,4.97955 l 0.165982,34.19295 m 0,0 32.367115,-18.59034 V 197.0509 193.23324 L 74.034288,208.5665 c -0.464042,0.27845 -0.952714,0.53227 -0.879245,1.34824 l -0.248975,29.96034 c 0,0 -1.68415,1.69668 -3.236714,0 l 0.165992,-29.37938 c 0,0 -0.140554,-1.99332 1.249124,-3.48201 0.860414,-0.92172 2.054352,-1.75259 4.062399,-2.65945 5.145544,-2.32379 23.071938,-12.94684 23.071938,-12.94684 L 68.341471,173.64699 c 0,0 -2.655764,-0.99592 -6.63941,1.82583"
       inkscape:connector-curvature="0"
       sodipodi:nodetypes="cccccccccccccccccccccscccccccccccccssccc" />
    <text
       xml:space="preserve"
       style="font-style:normal;font-weight:normal;font-size:17.68721008px;line-height:1.25;font-family:sans-serif;letter-spacing:0px;word-spacing:0px;fill:#ffffff;fill-opacity:1;stroke:none;stroke-width:0.44218022;"
       x="22.105024"
       y="272.45938"
       id="text29"><tspan
         sodipodi:role="line"
         id="tspan27"
         x="22.105024"
         y="272.45938"
         style="font-style:italic;font-variant:normal;font-weight:bold;font-stretch:normal;font-family:sans-serif;-inkscape-font-specification:'sans-serif Bold Italic';fill:#ffffff;fill-opacity:1;stroke-width:0.44218022;">EXPRESS</tspan></text>
    <text
       xml:space="preserve"
       style="font-style:normal;font-weight:normal;font-size:5.90330124px;line-height:1.25;font-family:sans-serif;letter-spacing:0px;word-spacing:0px;fill:#d3d7cf;fill-opacity:1;stroke:none;stroke-width:0.14758252;"
       x="35.509296"
       y="283.93521"
       id="text29-6"><tspan
         sodipodi:role="line"
         id="tspan27-5"
         x="35.509296"
         y="283.93521"
         style="font-style:italic;font-variant:normal;font-weight:bold;font-stretch:normal;font-family:sans-serif;-inkscape-font-specification:'sans-serif Bold Italic';fill:#d3d7cf;fill-opacity:1;stroke-width:0.14758252;">DELIVERY SERVICE</tspan></text>
  </g>
</svg>
